Devon DiMatteo - Homework 1
…
Homework 1

#Question 2A

ncdc_temp <- read_csv(
  'https://bcdanl.github.io/data/ncdc_temp_cleaned.csv')
ncdc_temp

# A tibble: 1,464 × 7
   station_id  month   day temperature flag  date       location    
   <chr>       <chr> <dbl>       <dbl> <chr> <date>     <chr>       
 1 USC00042319 01        1        51   S     0000-01-01 Death Valley
 2 USC00042319 01        2        51.2 S     0000-01-02 Death Valley
 3 USC00042319 01        3        51.3 S     0000-01-03 Death Valley
 4 USC00042319 01        4        51.4 S     0000-01-04 Death Valley
 5 USC00042319 01        5        51.6 S     0000-01-05 Death Valley
 6 USC00042319 01        6        51.7 S     0000-01-06 Death Valley
 7 USC00042319 01        7        51.9 S     0000-01-07 Death Valley
 8 USC00042319 01        8        52   S     0000-01-08 Death Valley
 9 USC00042319 01        9        52.2 S     0000-01-09 Death Valley
10 USC00042319 01       10        52.3 S     0000-01-10 Death Valley
# … with 1,454 more rows
…
popgrowth_df <- read_csv(
  'https://bcdanl.github.io/data/popgrowth.csv')
view(popgrowth_df)
p5 <- ggplot(popgrowth_df, 
             aes( x = reorder(state,popgrowth), 
                  y = popgrowth, 
                  fill = region))

#Question 2F

male_Aus <- read_csv(
  'https://bcdanl.github.io/data/aus_athletics_male.csv')
male_Aus

# A tibble: 83 × 13
     rcc   wcc    hc    hg  ferr   bmi   ssf pcBfat   lbm height weight sex  
   <dbl> <dbl> <dbl> <dbl> <dbl> <dbl> <dbl>  <dbl> <dbl>  <dbl>  <dbl> <chr>
 1  5.13   7.1  46.8  15.9    34  22.5  44.5   8.47    61   173.   67   m    
 2  4.83   7.6  45.2  15.2    97  23.9  41.8   7.68    69   176.   74.4 m    
 3  5.09   4.7  46.6  15.9    55  23.7  33.7   6.16    74   183    79.3 m    
 4  5.17   4.1  44.9  15      76  23.2  50.9   8.56    80   194.   87.5 m    
 5  5.11   6.7  46.1  15.6    93  22.3  40.5   6.86    78   193.   83.5 m    
 6  5.03   7.1  45.1  15.2    46  24.0  51.2   9.4     71   180.   78   m    
 7  5.32   6    47.5  16.3   155  23.3  54.4   9.17    71   183    78   m    
 8  4.75   8.6  45.5  15.2    99  25.1  52.3   8.54    78   184    85   m    
 9  5.34   6.6  48.6  16.5    35  22.8  57     9.2     77   193.   84.7 m    
10  4.87   4.8  44.9  15.4   124  26.2  65.3  11.7     81   187.   92   m    
# … with 73 more rows, and 1 more variable: sport <chr>
…
#Question 2G

titanic <- read_csv(
  'https://bcdanl.github.io/data/titanic_cleaned.csv')
titanic

# A tibble: 756 × 4
   class   age sex    survived
   <chr> <dbl> <chr>  <lgl>   
 1 1st   29    female TRUE    
 2 1st    2    female FALSE   
 3 1st   30    male   FALSE   
 4 1st   25    female FALSE   
 5 1st    0.92 male   TRUE    
 6 1st   47    male   TRUE    
 7 1st   63    female TRUE    
 8 1st   39    male   FALSE   
 9 1st   58    female TRUE    
10 1st   71    male   FALSE   
# … with 746 more rows
…
cows_filtered <- read_csv(
  'https://bcdanl.github.io/data/cows_filtered.csv')
cows_filtered

# A tibble: 80 × 3
   butterfat age    breed   
       <dbl> <chr>  <chr>   
 1      3.74 Mature Ayrshire
 2      4.01 Mature Ayrshire
 3      3.77 Mature Ayrshire
 4      3.78 Mature Ayrshire
 5      4.1  Mature Ayrshire
 6      4.06 Mature Ayrshire
 7      4.27 Mature Ayrshire
 8      3.94 Mature Ayrshire
 9      4.11 Mature Ayrshire
10      4.25 Mature Ayrshire
# … with 70 more rows
…
